{
  "command" : "cphaprob_list-vsx",
  "metrics" : [ {
    "tags" : {
      "display-name" : "ClusterXL Devices",
      "im.dstype" : "gauge",
      "im.dstype.displaytype" : "state",
      "im.identity-tags" : "name",
      "im.metric-type" : "ts",
      "im.name" : "clusterxl-pnote-state",
      "im.step" : "60",
      "live-config" : "true",
      "name" : "Interface Active Check",
      "state-description" : "problem (non-blocking)",
      "vs.id" : "2",
      "vs.name" : "lab-CP-VSXVSLS-1-R7730_lab-VS3"
    },
    "value" : "0.0"
  }, {
    "tags" : {
      "display-name" : "ClusterXL Devices",
      "im.dstype" : "gauge",
      "im.dstype.displaytype" : "state",
      "im.identity-tags" : "name",
      "im.metric-type" : "ts",
      "im.name" : "clusterxl-pnote-state",
      "im.step" : "60",
      "live-config" : "true",
      "name" : "admin_down",
      "state-description" : "problem",
      "vs.id" : "0",
      "vs.name" : "lab-CP-VSXVSLS-1-R7730"
    },
    "value" : "0.0"
  } ]
}
