{
  "command" : "unix-df_k",
  "metrics" : [ {
    "tags" : {
      "display-name" : "Mount Points - Total",
      "file-system" : "/",
      "im.dstype" : "gauge",
      "im.dstype.displaytype" : "kbytes",
      "im.identity-tags" : "file-system",
      "im.metric-type" : "ts",
      "im.name" : "disk-total-kbytes",
      "im.step" : "60",
      "live-config" : "true"
    },
    "values" : ["355024.0", "376111", "381001", "321241", "4012444"]
  }, {
    "tags" : {
      "display-name" : "Mount Points - Total",
      "file-system" : "/boot",
      "im.dstype" : "gauge",
      "im.dstype.displaytype" : "kbytes",
      "im.identity-tags" : "file-system",
      "im.metric-type" : "ts",
      "im.name" : "disk-total-kbytes",
      "im.step" : "60",
      "live-config" : "true"
    },
    "values" : ["355024.0", "376111", "381001", "321241", "4012444"]
  }, {
    "tags" : {
      "display-name" : "Mount Points - Total",
      "file-system" : "/dev/shm",
      "im.dstype" : "gauge",
      "im.dstype.displaytype" : "kbytes",
      "im.identity-tags" : "file-system",
      "im.metric-type" : "ts",
      "im.name" : "disk-total-kbytes",
      "im.step" : "60",
      "live-config" : "true"
    },
    "values" : ["355024.0", "376111", "381001", "321241", "4012444"]
  }, {
    "tags" : {
      "display-name" : "Mount Points - Total",
      "file-system" : "/var/log",
      "im.dstype" : "gauge",
      "im.dstype.displaytype" : "kbytes",
      "im.identity-tags" : "file-system",
      "im.metric-type" : "ts",
      "im.name" : "disk-total-kbytes",
      "im.step" : "60",
      "live-config" : "true"
    },
    "values" : ["4755352.0", "5887111", "6821222", "7588222"]
  }, {
    "tags" : {
      "display-name" : "Mount Points - Usage",
      "file-system" : "/",
      "im.dstype" : "gauge",
      "im.dstype.displaytype" : "percentage",
      "im.identity-tags" : "file-system",
      "im.metric-type" : "ts",
      "im.name" : "disk-usage-percentage",
      "im.step" : "60",
      "live-config" : "true"
    },
    "values" : ["93.0", "94", "95", "96"]
  }, {
    "tags" : {
      "display-name" : "Mount Points - Usage",
      "file-system" : "/boot",
      "im.dstype" : "gauge",
      "im.dstype.displaytype" : "percentage",
      "im.identity-tags" : "file-system",
      "im.metric-type" : "ts",
      "im.name" : "disk-usage-percentage",
      "im.step" : "60",
      "live-config" : "true"
    },
    "value" : "9.0"
  }, {
    "tags" : {
      "display-name" : "Mount Points - Usage",
      "file-system" : "/dev/shm",
      "im.dstype" : "gauge",
      "im.dstype.displaytype" : "percentage",
      "im.identity-tags" : "file-system",
      "im.metric-type" : "ts",
      "im.name" : "disk-usage-percentage",
      "im.step" : "60",
      "live-config" : "true"
    },
    "value" : "0.0"
  }, {
    "tags" : {
      "display-name" : "Mount Points - Usage",
      "file-system" : "/var/log",
      "im.dstype" : "gauge",
      "im.dstype.displaytype" : "percentage",
      "im.identity-tags" : "file-system",
      "im.metric-type" : "ts",
      "im.name" : "disk-usage-percentage",
      "im.step" : "60",
      "live-config" : "true"
    },
    "values" : ["30.0", "31", "32", "33", "34", "35"]
  }, {
    "tags" : {
      "display-name" : "Mount Points - Used",
      "file-system" : "/",
      "im.dstype" : "gauge",
      "im.dstype.displaytype" : "kbytes",
      "im.identity-tags" : "file-system",
      "im.metric-type" : "ts",
      "im.name" : "disk-used-kbytes",
      "im.step" : "60",
      "live-config" : "true"
    },
    "value" : "4461488.0"
  }, {
    "tags" : {
      "display-name" : "Mount Points - Used",
      "file-system" : "/boot",
      "im.dstype" : "gauge",
      "im.dstype.displaytype" : "kbytes",
      "im.identity-tags" : "file-system",
      "im.metric-type" : "ts",
      "im.name" : "disk-used-kbytes",
      "im.step" : "60",
      "live-config" : "true"
    },
    "value" : "24019.0"
  }, {
    "tags" : {
      "display-name" : "Mount Points - Used",
      "file-system" : "/dev/shm",
      "im.dstype" : "gauge",
      "im.dstype.displaytype" : "kbytes",
      "im.identity-tags" : "file-system",
      "im.metric-type" : "ts",
      "im.name" : "disk-used-kbytes",
      "im.step" : "60",
      "live-config" : "true"
    },
    "value" : "0.0"
  }, {
    "tags" : {
      "display-name" : "Mount Points - Used",
      "file-system" : "/var/log",
      "im.dstype" : "gauge",
      "im.dstype.displaytype" : "kbytes",
      "im.identity-tags" : "file-system",
      "im.metric-type" : "ts",
      "im.name" : "disk-used-kbytes",
      "im.step" : "60",
      "live-config" : "true"
    },
    "value" : "1987784.0"
  } ]
}
