{
  "command" : "log-server-connected",
  "metrics" : [ {
    "tags" : {
      "im.dstype" : "gauge",
      "im.metric-type" : "ts",
      "im.name" : "log-server-communicating",
      "im.step" : "300",
      "ip" : "1.1.1.2",
      "name" : "fakeLogServer"
    },
    "value" : "0.0"
  }, {
    "tags" : {
      "im.dstype" : "gauge",
      "im.metric-type" : "ts",
      "im.name" : "log-server-communicating",
      "im.step" : "300",
      "ip" : "10.10.6.10",
      "name" : "lab-CP-MGMT-R7730"
    },
    "value" : "1.0"
  } ]
}
