{
  "command" : "chkp-stat-size-fw-log-vsx",
  "metrics" : [ {
    "tags" : {
      "display-name" : "File Sizes - Log File",
      "im.dstype" : "counter",
      "im.dstype.displaytype" : "number",
      "im.metric-type" : "ts",
      "im.name" : "file-size",
      "im.step" : "300",
      "live-config" : "true",
      "path" : "$FWDIR/log/fw.log",
      "vs.id" : "0",
      "vs.name" : "lab-CP-VSXVSLS-2-R7730"
    },
    "value" : "18428.0"
  }, {
    "tags" : {
      "display-name" : "File Sizes - Log File",
      "im.dstype" : "counter",
      "im.dstype.displaytype" : "number",
      "im.metric-type" : "ts",
      "im.name" : "file-size",
      "im.step" : "300",
      "live-config" : "true",
      "path" : "$FWDIR/log/fw.log",
      "vs.id" : "1",
      "vs.name" : "lab-CP-VSXVSLS-2-R7730_VSW"
    },
    "value" : "8790.0"
  }, {
    "tags" : {
      "display-name" : "File Sizes - Log File",
      "im.dstype" : "counter",
      "im.dstype.displaytype" : "number",
      "im.metric-type" : "ts",
      "im.name" : "file-size",
      "im.step" : "300",
      "live-config" : "true",
      "path" : "$FWDIR/log/fw.log",
      "vs.id" : "2",
      "vs.name" : "lab-CP-VSXVSLS-2-R7730_lab-VS3"
    },
    "values" : ["9050.0","19050","29050","39050","49050","59050","69050","79050","81033","101222"]
  }, {
    "tags" : {
      "display-name" : "File Sizes - Log File",
      "im.dstype" : "counter",
      "im.dstype.displaytype" : "number",
      "im.metric-type" : "ts",
      "im.name" : "file-size",
      "im.step" : "300",
      "live-config" : "true",
      "path" : "$FWDIR/log/fw.log",
      "vs.id" : "3",
      "vs.name" : "lab-CP-VSXVSLS-2-R7730_lab-VS4"
    },
    "value" : "8594.0"
  } ]
}
