{
  "command" : "api-config-switchCapDynamicDataStoreMaxSize",
  "metrics" : [ {
    "tags" : {
      "display-name" : "Dynamic Date Store - Limit",
      "im.dstype.displaytype" : "number",
      "im.name" : "dynamic-data-store-limit",
      "live-config" : "true"
    },
    "value" : "2041303.0"
  } ]
}
