{
  "command" : "cphaconf-cluster-id",
  "metrics" : [ {
    "tags" : {
      "im.metric-type" : "runtime",
      "im.name" : "chkp-cluster-id-conflict"
    },
    "value" : {
      "value" : "false"
    }
  }, {
    "tags" : {
      "im.metric-type" : "runtime",
      "im.name" : "cluster-id-number"
    },
    "value" : {
      "value" : "507"
    }
  } ]
}
