{
  "command" : "nexus-show-resource",
  "metrics" : [ {
    "tags" : {
      "display-name" : "System Resources - Limit",
      "im.dstype.displaytype" : "number",
      "im.identity-tags" : "name",
      "im.name" : "system-resource-limit",
      "live-config" : "true",
      "name" : "anycast_bundleid"
    },
    "value" : "10.0"
  }, {
    "tags" : {
      "display-name" : "System Resources - Limit",
      "im.dstype.displaytype" : "number",
      "im.identity-tags" : "name",
      "im.name" : "system-resource-limit",
      "live-config" : "true",
      "name" : "bundle-map"
    },
    "value" : "384.0"
  }, {
    "tags" : {
      "display-name" : "System Resources - Limit",
      "im.dstype.displaytype" : "number",
      "im.identity-tags" : "name",
      "im.name" : "system-resource-limit",
      "live-config" : "true",
      "name" : "m4route-mem"
    },
    "value" : "58.0"
  }, {
    "tags" : {
      "display-name" : "System Resources - Limit",
      "im.dstype.displaytype" : "number",
      "im.identity-tags" : "name",
      "im.name" : "system-resource-limit",
      "live-config" : "true",
      "name" : "m6route-mem"
    },
    "value" : "8.0"
  }, {
    "tags" : {
      "display-name" : "System Resources - Limit",
      "im.dstype.displaytype" : "number",
      "im.identity-tags" : "name",
      "im.name" : "system-resource-limit",
      "live-config" : "true",
      "name" : "monitor-session"
    },
    "value" : "16.0"
  }, {
    "tags" : {
      "display-name" : "System Resources - Limit",
      "im.dstype.displaytype" : "number",
      "im.identity-tags" : "name",
      "im.name" : "system-resource-limit",
      "live-config" : "true",
      "name" : "port-channel"
    },
    "value" : "1600.0"
  }, {
    "tags" : {
      "display-name" : "System Resources - Limit",
      "im.dstype.displaytype" : "number",
      "im.identity-tags" : "name",
      "im.name" : "system-resource-limit",
      "live-config" : "true",
      "name" : "span_on_drop_ssn"
    },
    "value" : "1.0"
  }, {
    "tags" : {
      "display-name" : "System Resources - Limit",
      "im.dstype.displaytype" : "number",
      "im.identity-tags" : "name",
      "im.name" : "system-resource-limit",
      "live-config" : "true",
      "name" : "span_on_latency_ssn"
    },
    "value" : "1.0"
  }, {
    "tags" : {
      "display-name" : "System Resources - Limit",
      "im.dstype.displaytype" : "number",
      "im.identity-tags" : "name",
      "im.name" : "system-resource-limit",
      "live-config" : "true",
      "name" : "u4route-mem"
    },
    "value" : "32.0"
  }, {
    "tags" : {
      "display-name" : "System Resources - Limit",
      "im.dstype.displaytype" : "number",
      "im.identity-tags" : "name",
      "im.name" : "system-resource-limit",
      "live-config" : "true",
      "name" : "u6route-mem"
    },
    "value" : "24.0"
  }, {
    "tags" : {
      "display-name" : "System Resources - Limit",
      "im.dstype.displaytype" : "number",
      "im.identity-tags" : "name",
      "im.name" : "system-resource-limit",
      "live-config" : "true",
      "name" : "vlan"
    },
    "value" : "4094.0"
  }, {
    "tags" : {
      "display-name" : "System Resources - Limit",
      "im.dstype.displaytype" : "number",
      "im.identity-tags" : "name",
      "im.name" : "system-resource-limit",
      "live-config" : "true",
      "name" : "vrf"
    },
    "value" : "4096.0"
  }, {
    "tags" : {
      "display-name" : "System Resources - Usage",
      "im.dstype.displaytype" : "number",
      "im.identity-tags" : "name",
      "im.name" : "system-resource-usage",
      "live-config" : "true",
      "name" : "anycast_bundleid"
    },
    "value" : "0.0"
  }, {
    "tags" : {
      "display-name" : "System Resources - Usage",
      "im.dstype.displaytype" : "number",
      "im.identity-tags" : "name",
      "im.name" : "system-resource-usage",
      "live-config" : "true",
      "name" : "bundle-map"
    },
    "value" : "4.0"
  }, {
    "tags" : {
      "display-name" : "System Resources - Usage",
      "im.dstype.displaytype" : "number",
      "im.identity-tags" : "name",
      "im.name" : "system-resource-usage",
      "live-config" : "true",
      "name" : "m4route-mem"
    },
    "value" : "1.0"
  }, {
    "tags" : {
      "display-name" : "System Resources - Usage",
      "im.dstype.displaytype" : "number",
      "im.identity-tags" : "name",
      "im.name" : "system-resource-usage",
      "live-config" : "true",
      "name" : "m6route-mem"
    },
    "value" : "0.0"
  }, {
    "tags" : {
      "display-name" : "System Resources - Usage",
      "im.dstype.displaytype" : "number",
      "im.identity-tags" : "name",
      "im.name" : "system-resource-usage",
      "live-config" : "true",
      "name" : "monitor-session"
    },
    "value" : "0.0"
  }, {
    "tags" : {
      "display-name" : "System Resources - Usage",
      "im.dstype.displaytype" : "number",
      "im.identity-tags" : "name",
      "im.name" : "system-resource-usage",
      "live-config" : "true",
      "name" : "port-channel"
    },
    "value" : "10.0"
  }, {
    "tags" : {
      "display-name" : "System Resources - Usage",
      "im.dstype.displaytype" : "number",
      "im.identity-tags" : "name",
      "im.name" : "system-resource-usage",
      "live-config" : "true",
      "name" : "span_on_drop_ssn"
    },
    "value" : "0.0"
  }, {
    "tags" : {
      "display-name" : "System Resources - Usage",
      "im.dstype.displaytype" : "number",
      "im.identity-tags" : "name",
      "im.name" : "system-resource-usage",
      "live-config" : "true",
      "name" : "span_on_latency_ssn"
    },
    "value" : "0.0"
  }, {
    "tags" : {
      "display-name" : "System Resources - Usage",
      "im.dstype.displaytype" : "number",
      "im.identity-tags" : "name",
      "im.name" : "system-resource-usage",
      "live-config" : "true",
      "name" : "u4route-mem"
    },
    "value" : "1.0"
  }, {
    "tags" : {
      "display-name" : "System Resources - Usage",
      "im.dstype.displaytype" : "number",
      "im.identity-tags" : "name",
      "im.name" : "system-resource-usage",
      "live-config" : "true",
      "name" : "u6route-mem"
    },
    "value" : "1.0"
  }, {
    "tags" : {
      "display-name" : "System Resources - Usage",
      "im.dstype.displaytype" : "number",
      "im.identity-tags" : "name",
      "im.name" : "system-resource-usage",
      "live-config" : "true",
      "name" : "vlan"
    },
    "value" : "23.0"
  }, {
    "tags" : {
      "display-name" : "System Resources - Usage",
      "im.dstype.displaytype" : "number",
      "im.identity-tags" : "name",
      "im.name" : "system-resource-usage",
      "live-config" : "true",
      "name" : "vrf"
    },
    "value" : "3.0"
  } ]
}
