{
  "command" : "nexus-show-environment",
  "metrics" : [ {
    "tags" : {
      "display-name" : "Fan Status",
      "im.dstype.displaytype" : "state",
      "im.identity-tags" : "name",
      "im.name" : "hardware-element-status",
      "live-config" : "true",
      "name" : "Fan ChassisFan1"
    },
    "value" : "1.0"
  }, {
    "tags" : {
      "display-name" : "Fan Status",
      "im.dstype.displaytype" : "state",
      "im.identity-tags" : "name",
      "im.name" : "hardware-element-status",
      "live-config" : "true",
      "name" : "Fan ChassisFan2"
    },
    "value" : "1.0"
  }, {
    "tags" : {
      "display-name" : "Fan Status",
      "im.dstype.displaytype" : "state",
      "im.identity-tags" : "name",
      "im.name" : "hardware-element-status",
      "live-config" : "true",
      "name" : "Fan Fan_in_PS1"
    },
    "value" : "1.0"
  }, {
    "tags" : {
      "display-name" : "Fan Status",
      "im.dstype.displaytype" : "state",
      "im.identity-tags" : "name",
      "im.name" : "hardware-element-status",
      "live-config" : "true",
      "name" : "Fan Fan_in_PS2"
    },
    "value" : "0.0"
  }, {
    "tags" : {
      "display-name" : "Module Power Status",
      "im.dstype.displaytype" : "state",
      "im.identity-tags" : "name",
      "im.name" : "hardware-element-status",
      "live-config" : "true",
      "name" : "Module 1 (N7K-SUP1)"
    },
    "value" : "0.0"
  }, {
    "tags" : {
      "display-name" : "Module Power Status",
      "im.dstype.displaytype" : "state",
      "im.identity-tags" : "name",
      "im.name" : "hardware-element-status",
      "live-config" : "true",
      "name" : "Module 2 (N7K-F248XP-25)"
    },
    "value" : "1.0"
  }, {
    "tags" : {
      "display-name" : "Module Power Status",
      "im.dstype.displaytype" : "state",
      "im.identity-tags" : "name",
      "im.name" : "hardware-element-status",
      "live-config" : "true",
      "name" : "Module 3 (N7K-F248XP-25)"
    },
    "value" : "1.0"
  }, {
    "tags" : {
      "display-name" : "Module Power Status",
      "im.dstype.displaytype" : "state",
      "im.identity-tags" : "name",
      "im.name" : "hardware-element-status",
      "live-config" : "true",
      "name" : "Module 4 (N7K-F248XP-25)"
    },
    "value" : "1.0"
  }, {
    "tags" : {
      "display-name" : "Module Power Status",
      "im.dstype.displaytype" : "state",
      "im.identity-tags" : "name",
      "im.name" : "hardware-element-status",
      "live-config" : "true",
      "name" : "Module fan1"
    },
    "value" : "1.0"
  }, {
    "tags" : {
      "display-name" : "Module Power Status",
      "im.dstype.displaytype" : "state",
      "im.identity-tags" : "name",
      "im.name" : "hardware-element-status",
      "live-config" : "true",
      "name" : "Module fan2"
    },
    "value" : "1.0"
  }, {
    "tags" : {
      "display-name" : "Power Supply Status",
      "im.dstype.displaytype" : "state",
      "im.identity-tags" : "name",
      "im.name" : "hardware-element-status",
      "live-config" : "true",
      "name" : "Power Supply 1"
    },
    "value" : "1.0"
  }, {
    "tags" : {
      "display-name" : "Power Supply Status",
      "im.dstype.displaytype" : "state",
      "im.identity-tags" : "name",
      "im.name" : "hardware-element-status",
      "live-config" : "true",
      "name" : "Power Supply 2"
    },
    "value" : "1.0"
  } ]
}
