{
  "command" : "nexus-show-module",
  "metrics" : [ {
    "tags" : {
      "display-name" : "Modules State",
      "im.dstype.displaytype" : "state",
      "im.name" : "blade-state",
      "live-config" : "true",
      "name" : "Slot-1:N9K-C9372PX-E 48x1/10G SFP+ 6x40G Ethernet Module"
    },
    "value" : "1.0"
  } ]
}
