{
  "command" : "nexus-show-system-internal_flash",
  "metrics" : [ {
    "tags" : {
      "display-name" : "File System - Total",
      "file-system" : "/",
      "im.dstype.displaytype" : "kilobytes",
      "im.identity-tags" : "file-system",
      "im.name" : "disk-total-kbytes",
      "live-config" : "true"
    },
    "value" : "400.0"
  }, {
    "tags" : {
      "display-name" : "File System - Total",
      "file-system" : "/bootflash",
      "im.dstype.displaytype" : "kilobytes",
      "im.identity-tags" : "file-system",
      "im.name" : "disk-total-kbytes",
      "live-config" : "true"
    },
    "value" : "6984.82"
  }, {
    "tags" : {
      "display-name" : "File System - Total",
      "file-system" : "/callhome",
      "im.dstype.displaytype" : "kilobytes",
      "im.identity-tags" : "file-system",
      "im.name" : "disk-total-kbytes",
      "live-config" : "true"
    },
    "value" : "60.0"
  }, {
    "tags" : {
      "display-name" : "File System - Total",
      "file-system" : "/cgroup",
      "im.dstype.displaytype" : "kilobytes",
      "im.identity-tags" : "file-system",
      "im.name" : "disk-total-kbytes",
      "live-config" : "true"
    },
    "value" : "0.0"
  }, {
    "tags" : {
      "display-name" : "File System - Total",
      "file-system" : "/debug",
      "im.dstype.displaytype" : "kilobytes",
      "im.identity-tags" : "file-system",
      "im.name" : "disk-total-kbytes",
      "live-config" : "true"
    },
    "value" : "20.0"
  }, {
    "tags" : {
      "display-name" : "File System - Total",
      "file-system" : "/debugfs",
      "im.dstype.displaytype" : "kilobytes",
      "im.identity-tags" : "file-system",
      "im.name" : "disk-total-kbytes",
      "live-config" : "true"
    },
    "value" : "0.0"
  }, {
    "tags" : {
      "display-name" : "File System - Total",
      "file-system" : "/dev/mqueue",
      "im.dstype.displaytype" : "kilobytes",
      "im.identity-tags" : "file-system",
      "im.name" : "disk-total-kbytes",
      "live-config" : "true"
    },
    "value" : "0.0"
  }, {
    "tags" : {
      "display-name" : "File System - Total",
      "file-system" : "/dev/pts",
      "im.dstype.displaytype" : "kilobytes",
      "im.identity-tags" : "file-system",
      "im.name" : "disk-total-kbytes",
      "live-config" : "true"
    },
    "value" : "0.0"
  }, {
    "tags" : {
      "display-name" : "File System - Total",
      "file-system" : "/dev/shm",
      "im.dstype.displaytype" : "kilobytes",
      "im.identity-tags" : "file-system",
      "im.name" : "disk-total-kbytes",
      "live-config" : "true"
    },
    "value" : "512.0"
  }, {
    "tags" : {
      "display-name" : "File System - Total",
      "file-system" : "/isan",
      "im.dstype.displaytype" : "kilobytes",
      "im.identity-tags" : "file-system",
      "im.name" : "disk-total-kbytes",
      "live-config" : "true"
    },
    "value" : "1500.0"
  }, {
    "tags" : {
      "display-name" : "File System - Total",
      "file-system" : "/mnt/cfg/0",
      "im.dstype.displaytype" : "kilobytes",
      "im.identity-tags" : "file-system",
      "im.name" : "disk-total-kbytes",
      "live-config" : "true"
    },
    "value" : "106.058"
  }, {
    "tags" : {
      "display-name" : "File System - Total",
      "file-system" : "/mnt/cfg/1",
      "im.dstype.displaytype" : "kilobytes",
      "im.identity-tags" : "file-system",
      "im.name" : "disk-total-kbytes",
      "live-config" : "true"
    },
    "value" : "106.058"
  }, {
    "tags" : {
      "display-name" : "File System - Total",
      "file-system" : "/mnt/plog",
      "im.dstype.displaytype" : "kilobytes",
      "im.identity-tags" : "file-system",
      "im.name" : "disk-total-kbytes",
      "live-config" : "true"
    },
    "value" : "47.875"
  }, {
    "tags" : {
      "display-name" : "File System - Total",
      "file-system" : "/mnt/pss",
      "im.dstype.displaytype" : "kilobytes",
      "im.identity-tags" : "file-system",
      "im.name" : "disk-total-kbytes",
      "live-config" : "true"
    },
    "value" : "106.065"
  }, {
    "tags" : {
      "display-name" : "File System - Total",
      "file-system" : "/nxos/tmp",
      "im.dstype.displaytype" : "kilobytes",
      "im.identity-tags" : "file-system",
      "im.name" : "disk-total-kbytes",
      "live-config" : "true"
    },
    "value" : "40.0"
  }, {
    "tags" : {
      "display-name" : "File System - Total",
      "file-system" : "/post",
      "im.dstype.displaytype" : "kilobytes",
      "im.identity-tags" : "file-system",
      "im.name" : "disk-total-kbytes",
      "live-config" : "true"
    },
    "value" : "2.0"
  }, {
    "tags" : {
      "display-name" : "File System - Total",
      "file-system" : "/proc",
      "im.dstype.displaytype" : "kilobytes",
      "im.identity-tags" : "file-system",
      "im.name" : "disk-total-kbytes",
      "live-config" : "true"
    },
    "value" : "0.0"
  }, {
    "tags" : {
      "display-name" : "File System - Total",
      "file-system" : "/proc/bus/usb",
      "im.dstype.displaytype" : "kilobytes",
      "im.identity-tags" : "file-system",
      "im.name" : "disk-total-kbytes",
      "live-config" : "true"
    },
    "value" : "0.0"
  }, {
    "tags" : {
      "display-name" : "File System - Total",
      "file-system" : "/sys",
      "im.dstype.displaytype" : "kilobytes",
      "im.identity-tags" : "file-system",
      "im.name" : "disk-total-kbytes",
      "live-config" : "true"
    },
    "value" : "0.0"
  }, {
    "tags" : {
      "display-name" : "File System - Total",
      "file-system" : "/var",
      "im.dstype.displaytype" : "kilobytes",
      "im.identity-tags" : "file-system",
      "im.name" : "disk-total-kbytes",
      "live-config" : "true"
    },
    "value" : "400.0"
  }, {
    "tags" : {
      "display-name" : "File System - Total",
      "file-system" : "/var/sysmgr",
      "im.dstype.displaytype" : "kilobytes",
      "im.identity-tags" : "file-system",
      "im.name" : "disk-total-kbytes",
      "live-config" : "true"
    },
    "value" : "2000.0"
  }, {
    "tags" : {
      "display-name" : "File System - Total",
      "file-system" : "/var/sysmgr/ftp",
      "im.dstype.displaytype" : "kilobytes",
      "im.identity-tags" : "file-system",
      "im.name" : "disk-total-kbytes",
      "live-config" : "true"
    },
    "value" : "400.0"
  }, {
    "tags" : {
      "display-name" : "File System - Total",
      "file-system" : "/var/sysmgr/ftp/cores",
      "im.dstype.displaytype" : "kilobytes",
      "im.identity-tags" : "file-system",
      "im.name" : "disk-total-kbytes",
      "live-config" : "true"
    },
    "value" : "100.0"
  }, {
    "tags" : {
      "display-name" : "File System - Total",
      "file-system" : "/var/sysmgr/startup-cfg",
      "im.dstype.displaytype" : "kilobytes",
      "im.identity-tags" : "file-system",
      "im.name" : "disk-total-kbytes",
      "live-config" : "true"
    },
    "value" : "400.0"
  }, {
    "tags" : {
      "display-name" : "File System - Total",
      "file-system" : "/var/tmp",
      "im.dstype.displaytype" : "kilobytes",
      "im.identity-tags" : "file-system",
      "im.name" : "disk-total-kbytes",
      "live-config" : "true"
    },
    "value" : "300.0"
  }, {
    "tags" : {
      "display-name" : "File System - Total",
      "file-system" : "/volatile",
      "im.dstype.displaytype" : "kilobytes",
      "im.identity-tags" : "file-system",
      "im.name" : "disk-total-kbytes",
      "live-config" : "true"
    },
    "value" : "150.0"
  }, {
    "tags" : {
      "display-name" : "File System - Usage",
      "file-system" : "/",
      "im.dstype.displaytype" : "percentage",
      "im.identity-tags" : "file-system",
      "im.name" : "disk-usage-percentage",
      "live-config" : "true"
    },
    "value" : "19.0"
  }, {
    "tags" : {
      "display-name" : "File System - Usage",
      "file-system" : "/bootflash",
      "im.dstype.displaytype" : "percentage",
      "im.identity-tags" : "file-system",
      "im.name" : "disk-usage-percentage",
      "live-config" : "true"
    },
    "value" : "5.0"
  }, {
    "tags" : {
      "display-name" : "File System - Usage",
      "file-system" : "/callhome",
      "im.dstype.displaytype" : "percentage",
      "im.identity-tags" : "file-system",
      "im.name" : "disk-usage-percentage",
      "live-config" : "true"
    },
    "value" : "0.0"
  }, {
    "tags" : {
      "display-name" : "File System - Usage",
      "file-system" : "/cgroup",
      "im.dstype.displaytype" : "percentage",
      "im.identity-tags" : "file-system",
      "im.name" : "disk-usage-percentage",
      "live-config" : "true"
    },
    "value" : "0.0"
  }, {
    "tags" : {
      "display-name" : "File System - Usage",
      "file-system" : "/debug",
      "im.dstype.displaytype" : "percentage",
      "im.identity-tags" : "file-system",
      "im.name" : "disk-usage-percentage",
      "live-config" : "true"
    },
    "value" : "0.0"
  }, {
    "tags" : {
      "display-name" : "File System - Usage",
      "file-system" : "/debugfs",
      "im.dstype.displaytype" : "percentage",
      "im.identity-tags" : "file-system",
      "im.name" : "disk-usage-percentage",
      "live-config" : "true"
    },
    "value" : "0.0"
  }, {
    "tags" : {
      "display-name" : "File System - Usage",
      "file-system" : "/dev/mqueue",
      "im.dstype.displaytype" : "percentage",
      "im.identity-tags" : "file-system",
      "im.name" : "disk-usage-percentage",
      "live-config" : "true"
    },
    "value" : "0.0"
  }, {
    "tags" : {
      "display-name" : "File System - Usage",
      "file-system" : "/dev/pts",
      "im.dstype.displaytype" : "percentage",
      "im.identity-tags" : "file-system",
      "im.name" : "disk-usage-percentage",
      "live-config" : "true"
    },
    "value" : "0.0"
  }, {
    "tags" : {
      "display-name" : "File System - Usage",
      "file-system" : "/dev/shm",
      "im.dstype.displaytype" : "percentage",
      "im.identity-tags" : "file-system",
      "im.name" : "disk-usage-percentage",
      "live-config" : "true"
    },
    "value" : "45.0"
  }, {
    "tags" : {
      "display-name" : "File System - Usage",
      "file-system" : "/isan",
      "im.dstype.displaytype" : "percentage",
      "im.identity-tags" : "file-system",
      "im.name" : "disk-usage-percentage",
      "live-config" : "true"
    },
    "value" : "46.0"
  }, {
    "tags" : {
      "display-name" : "File System - Usage",
      "file-system" : "/mnt/cfg/0",
      "im.dstype.displaytype" : "percentage",
      "im.identity-tags" : "file-system",
      "im.name" : "disk-usage-percentage",
      "live-config" : "true"
    },
    "value" : "5.0"
  }, {
    "tags" : {
      "display-name" : "File System - Usage",
      "file-system" : "/mnt/cfg/1",
      "im.dstype.displaytype" : "percentage",
      "im.identity-tags" : "file-system",
      "im.name" : "disk-usage-percentage",
      "live-config" : "true"
    },
    "value" : "5.0"
  }, {
    "tags" : {
      "display-name" : "File System - Usage",
      "file-system" : "/mnt/plog",
      "im.dstype.displaytype" : "percentage",
      "im.identity-tags" : "file-system",
      "im.name" : "disk-usage-percentage",
      "live-config" : "true"
    },
    "value" : "3.0"
  }, {
    "tags" : {
      "display-name" : "File System - Usage",
      "file-system" : "/mnt/pss",
      "im.dstype.displaytype" : "percentage",
      "im.identity-tags" : "file-system",
      "im.name" : "disk-usage-percentage",
      "live-config" : "true"
    },
    "value" : "5.0"
  }, {
    "tags" : {
      "display-name" : "File System - Usage",
      "file-system" : "/nxos/tmp",
      "im.dstype.displaytype" : "percentage",
      "im.identity-tags" : "file-system",
      "im.name" : "disk-usage-percentage",
      "live-config" : "true"
    },
    "value" : "1.0"
  }, {
    "tags" : {
      "display-name" : "File System - Usage",
      "file-system" : "/post",
      "im.dstype.displaytype" : "percentage",
      "im.identity-tags" : "file-system",
      "im.name" : "disk-usage-percentage",
      "live-config" : "true"
    },
    "value" : "1.0"
  }, {
    "tags" : {
      "display-name" : "File System - Usage",
      "file-system" : "/proc",
      "im.dstype.displaytype" : "percentage",
      "im.identity-tags" : "file-system",
      "im.name" : "disk-usage-percentage",
      "live-config" : "true"
    },
    "value" : "0.0"
  }, {
    "tags" : {
      "display-name" : "File System - Usage",
      "file-system" : "/proc/bus/usb",
      "im.dstype.displaytype" : "percentage",
      "im.identity-tags" : "file-system",
      "im.name" : "disk-usage-percentage",
      "live-config" : "true"
    },
    "value" : "0.0"
  }, {
    "tags" : {
      "display-name" : "File System - Usage",
      "file-system" : "/sys",
      "im.dstype.displaytype" : "percentage",
      "im.identity-tags" : "file-system",
      "im.name" : "disk-usage-percentage",
      "live-config" : "true"
    },
    "value" : "0.0"
  }, {
    "tags" : {
      "display-name" : "File System - Usage",
      "file-system" : "/var",
      "im.dstype.displaytype" : "percentage",
      "im.identity-tags" : "file-system",
      "im.name" : "disk-usage-percentage",
      "live-config" : "true"
    },
    "value" : "19.0"
  }, {
    "tags" : {
      "display-name" : "File System - Usage",
      "file-system" : "/var/sysmgr",
      "im.dstype.displaytype" : "percentage",
      "im.identity-tags" : "file-system",
      "im.name" : "disk-usage-percentage",
      "live-config" : "true"
    },
    "value" : "1.0"
  }, {
    "tags" : {
      "display-name" : "File System - Usage",
      "file-system" : "/var/sysmgr/ftp",
      "im.dstype.displaytype" : "percentage",
      "im.identity-tags" : "file-system",
      "im.name" : "disk-usage-percentage",
      "live-config" : "true"
    },
    "value" : "1.0"
  }, {
    "tags" : {
      "display-name" : "File System - Usage",
      "file-system" : "/var/sysmgr/ftp/cores",
      "im.dstype.displaytype" : "percentage",
      "im.identity-tags" : "file-system",
      "im.name" : "disk-usage-percentage",
      "live-config" : "true"
    },
    "value" : "0.0"
  }, {
    "tags" : {
      "display-name" : "File System - Usage",
      "file-system" : "/var/sysmgr/startup-cfg",
      "im.dstype.displaytype" : "percentage",
      "im.identity-tags" : "file-system",
      "im.name" : "disk-usage-percentage",
      "live-config" : "true"
    },
    "value" : "2.0"
  }, {
    "tags" : {
      "display-name" : "File System - Usage",
      "file-system" : "/var/tmp",
      "im.dstype.displaytype" : "percentage",
      "im.identity-tags" : "file-system",
      "im.name" : "disk-usage-percentage",
      "live-config" : "true"
    },
    "value" : "1.0"
  }, {
    "tags" : {
      "display-name" : "File System - Usage",
      "file-system" : "/volatile",
      "im.dstype.displaytype" : "percentage",
      "im.identity-tags" : "file-system",
      "im.name" : "disk-usage-percentage",
      "live-config" : "true"
    },
    "value" : "0.0"
  }, {
    "tags" : {
      "display-name" : "File System - Used",
      "file-system" : "/",
      "im.dstype.displaytype" : "kilobytes",
      "im.identity-tags" : "file-system",
      "im.name" : "disk-used-kbytes",
      "live-config" : "true"
    },
    "value" : "74.543"
  }, {
    "tags" : {
      "display-name" : "File System - Used",
      "file-system" : "/bootflash",
      "im.dstype.displaytype" : "kilobytes",
      "im.identity-tags" : "file-system",
      "im.name" : "disk-used-kbytes",
      "live-config" : "true"
    },
    "value" : "299.395"
  }, {
    "tags" : {
      "display-name" : "File System - Used",
      "file-system" : "/callhome",
      "im.dstype.displaytype" : "kilobytes",
      "im.identity-tags" : "file-system",
      "im.name" : "disk-used-kbytes",
      "live-config" : "true"
    },
    "value" : "0.0"
  }, {
    "tags" : {
      "display-name" : "File System - Used",
      "file-system" : "/cgroup",
      "im.dstype.displaytype" : "kilobytes",
      "im.identity-tags" : "file-system",
      "im.name" : "disk-used-kbytes",
      "live-config" : "true"
    },
    "value" : "0.0"
  }, {
    "tags" : {
      "display-name" : "File System - Used",
      "file-system" : "/debug",
      "im.dstype.displaytype" : "kilobytes",
      "im.identity-tags" : "file-system",
      "im.name" : "disk-used-kbytes",
      "live-config" : "true"
    },
    "value" : "0.0"
  }, {
    "tags" : {
      "display-name" : "File System - Used",
      "file-system" : "/debugfs",
      "im.dstype.displaytype" : "kilobytes",
      "im.identity-tags" : "file-system",
      "im.name" : "disk-used-kbytes",
      "live-config" : "true"
    },
    "value" : "0.0"
  }, {
    "tags" : {
      "display-name" : "File System - Used",
      "file-system" : "/dev/mqueue",
      "im.dstype.displaytype" : "kilobytes",
      "im.identity-tags" : "file-system",
      "im.name" : "disk-used-kbytes",
      "live-config" : "true"
    },
    "value" : "0.0"
  }, {
    "tags" : {
      "display-name" : "File System - Used",
      "file-system" : "/dev/pts",
      "im.dstype.displaytype" : "kilobytes",
      "im.identity-tags" : "file-system",
      "im.name" : "disk-used-kbytes",
      "live-config" : "true"
    },
    "value" : "0.0"
  }, {
    "tags" : {
      "display-name" : "File System - Used",
      "file-system" : "/dev/shm",
      "im.dstype.displaytype" : "kilobytes",
      "im.identity-tags" : "file-system",
      "im.name" : "disk-used-kbytes",
      "live-config" : "true"
    },
    "value" : "227.398"
  }, {
    "tags" : {
      "display-name" : "File System - Used",
      "file-system" : "/isan",
      "im.dstype.displaytype" : "kilobytes",
      "im.identity-tags" : "file-system",
      "im.name" : "disk-used-kbytes",
      "live-config" : "true"
    },
    "value" : "684.293"
  }, {
    "tags" : {
      "display-name" : "File System - Used",
      "file-system" : "/mnt/cfg/0",
      "im.dstype.displaytype" : "kilobytes",
      "im.identity-tags" : "file-system",
      "im.name" : "disk-used-kbytes",
      "live-config" : "true"
    },
    "value" : "4.37012"
  }, {
    "tags" : {
      "display-name" : "File System - Used",
      "file-system" : "/mnt/cfg/1",
      "im.dstype.displaytype" : "kilobytes",
      "im.identity-tags" : "file-system",
      "im.name" : "disk-used-kbytes",
      "live-config" : "true"
    },
    "value" : "4.37012"
  }, {
    "tags" : {
      "display-name" : "File System - Used",
      "file-system" : "/mnt/plog",
      "im.dstype.displaytype" : "kilobytes",
      "im.identity-tags" : "file-system",
      "im.name" : "disk-used-kbytes",
      "live-config" : "true"
    },
    "value" : "1.36719"
  }, {
    "tags" : {
      "display-name" : "File System - Used",
      "file-system" : "/mnt/pss",
      "im.dstype.displaytype" : "kilobytes",
      "im.identity-tags" : "file-system",
      "im.name" : "disk-used-kbytes",
      "live-config" : "true"
    },
    "value" : "5.24512"
  }, {
    "tags" : {
      "display-name" : "File System - Used",
      "file-system" : "/nxos/tmp",
      "im.dstype.displaytype" : "kilobytes",
      "im.identity-tags" : "file-system",
      "im.name" : "disk-used-kbytes",
      "live-config" : "true"
    },
    "value" : "0.246094"
  }, {
    "tags" : {
      "display-name" : "File System - Used",
      "file-system" : "/post",
      "im.dstype.displaytype" : "kilobytes",
      "im.identity-tags" : "file-system",
      "im.name" : "disk-used-kbytes",
      "live-config" : "true"
    },
    "value" : "0.00390625"
  }, {
    "tags" : {
      "display-name" : "File System - Used",
      "file-system" : "/proc",
      "im.dstype.displaytype" : "kilobytes",
      "im.identity-tags" : "file-system",
      "im.name" : "disk-used-kbytes",
      "live-config" : "true"
    },
    "value" : "0.0"
  }, {
    "tags" : {
      "display-name" : "File System - Used",
      "file-system" : "/proc/bus/usb",
      "im.dstype.displaytype" : "kilobytes",
      "im.identity-tags" : "file-system",
      "im.name" : "disk-used-kbytes",
      "live-config" : "true"
    },
    "value" : "0.0"
  }, {
    "tags" : {
      "display-name" : "File System - Used",
      "file-system" : "/sys",
      "im.dstype.displaytype" : "kilobytes",
      "im.identity-tags" : "file-system",
      "im.name" : "disk-used-kbytes",
      "live-config" : "true"
    },
    "value" : "0.0"
  }, {
    "tags" : {
      "display-name" : "File System - Used",
      "file-system" : "/var",
      "im.dstype.displaytype" : "kilobytes",
      "im.identity-tags" : "file-system",
      "im.name" : "disk-used-kbytes",
      "live-config" : "true"
    },
    "value" : "74.543"
  }, {
    "tags" : {
      "display-name" : "File System - Used",
      "file-system" : "/var/sysmgr",
      "im.dstype.displaytype" : "kilobytes",
      "im.identity-tags" : "file-system",
      "im.name" : "disk-used-kbytes",
      "live-config" : "true"
    },
    "value" : "1.86719"
  }, {
    "tags" : {
      "display-name" : "File System - Used",
      "file-system" : "/var/sysmgr/ftp",
      "im.dstype.displaytype" : "kilobytes",
      "im.identity-tags" : "file-system",
      "im.name" : "disk-used-kbytes",
      "live-config" : "true"
    },
    "value" : "0.0976563"
  }, {
    "tags" : {
      "display-name" : "File System - Used",
      "file-system" : "/var/sysmgr/ftp/cores",
      "im.dstype.displaytype" : "kilobytes",
      "im.identity-tags" : "file-system",
      "im.name" : "disk-used-kbytes",
      "live-config" : "true"
    },
    "value" : "0.0"
  }, {
    "tags" : {
      "display-name" : "File System - Used",
      "file-system" : "/var/sysmgr/startup-cfg",
      "im.dstype.displaytype" : "kilobytes",
      "im.identity-tags" : "file-system",
      "im.name" : "disk-used-kbytes",
      "live-config" : "true"
    },
    "value" : "5.26172"
  }, {
    "tags" : {
      "display-name" : "File System - Used",
      "file-system" : "/var/tmp",
      "im.dstype.displaytype" : "kilobytes",
      "im.identity-tags" : "file-system",
      "im.name" : "disk-used-kbytes",
      "live-config" : "true"
    },
    "value" : "0.15625"
  }, {
    "tags" : {
      "display-name" : "File System - Used",
      "file-system" : "/volatile",
      "im.dstype.displaytype" : "kilobytes",
      "im.identity-tags" : "file-system",
      "im.name" : "disk-used-kbytes",
      "live-config" : "true"
    },
    "value" : "0.0"
  } ]
}
