{
  "command" : "nexus-show-inventory",
  "metrics" : [ {
    "tags" : {
      "im.metric-type" : "runtime",
      "im.name" : "serial-numbers"
    },
    "value" : [ {
      "name" : "N5K-C56128P",
      "serial-number" : "FOC1822R1GG"
    }, {
      "name" : "N5K-C56128P",
      "serial-number" : "FOC18216K9K"
    }, {
      "serial-number" : "ART18232158",
      "name" : "NXA-PAC-1100W-B"
    }, {
      "serial-number" : "ART18232157",
      "name" : "NXA-PAC-1100W-B"
    }, {
      "serial-number" : "SSI1741040L",
      "name" : "N2K-C2248TP-E-1GE"
    }, {
      "serial-number" : "FOC181539KK",
      "name" : "N2K-C2248TP-E-1GE"
    }, {
      "name" : "N2200-PAC-400W",
      "serial-number" : "DTN1812P30X"
    }, {
      "name" : "N2200-PAC-400W",
      "serial-number" : "DTN1812P32Q"
    } ]
  } ]
}
