{
  "command" : "nexus-show-inventory-field-notices",
  "metrics" : [ {
    "tags" : {
      "im.metric-type" : "runtime",
      "im.name" : "cisco-nexus-fn64251",
      "name" : "Chassis N9K-C9508 VID:V01 (SN:SAL17257PBN)"
    },
    "value" : {
      "value" : "false"
    }
  }, {
    "tags" : {
      "im.metric-type" : "runtime",
      "im.name" : "cisco-nexus-fn64251",
      "name" : "Slot 22 N9K-C9504-FM-E VID:V02 (SN:SAL17194HVX)"
    },
    "value" : {
      "value" : "false"
    }
  }, {
    "tags" : {
      "im.metric-type" : "runtime",
      "im.name" : "cisco-nexus-fn64251",
      "name" : "Slot 24 N9K-C9508-FM-E VID:V02 (SN:SAL17194HRK)"
    },
    "value" : {
      "value" : "false"
    }
  }, {
    "tags" : {
      "im.metric-type" : "runtime",
      "im.name" : "cisco-nexus-fn64251",
      "name" : "Slot 26 N9K-C9508-FM VID:V01 (SN:SAL17194HSR)"
    },
    "value" : {
      "value" : "false"
    }
  }, {
    "tags" : {
      "im.metric-type" : "runtime",
      "im.name" : "cisco-nexus-fn64251",
      "name" : "Slot 27 N9K-SUP-A VID:V01 (SN:SAL17184072)"
    },
    "value" : {
      "value" : "false"
    }
  }, {
    "tags" : {
      "im.metric-type" : "runtime",
      "im.name" : "cisco-nexus-fn64251",
      "name" : "Slot 28 N9K-SUP-A VID:V01 (SN:SAL1739DAUL)"
    },
    "value" : {
      "value" : "false"
    }
  }, {
    "tags" : {
      "im.metric-type" : "runtime",
      "im.name" : "cisco-nexus-fn64251",
      "name" : "Slot 29 N9K-SC-A VID:N/A (SN:SAL17225YFS)"
    },
    "value" : {
      "value" : "false"
    }
  }, {
    "tags" : {
      "im.metric-type" : "runtime",
      "im.name" : "cisco-nexus-fn64251",
      "name" : "Slot 30 N9K-SC-A VID:N/A (SN:SAL17225YG8)"
    },
    "value" : {
      "value" : "false"
    }
  }, {
    "tags" : {
      "im.metric-type" : "runtime",
      "im.name" : "cisco-nexus-fn64251",
      "name" : "Slot 33 N9K-PAC-3000W-B VID:V01 (SN:DTM1722000A)"
    },
    "value" : {
      "value" : "false"
    }
  }, {
    "tags" : {
      "im.metric-type" : "runtime",
      "im.name" : "cisco-nexus-fn64251",
      "name" : "Slot 36 N9K-PAC-3000W VID:V01 (SN:DTM164601XC)"
    },
    "value" : {
      "value" : "false"
    }
  }, {
    "tags" : {
      "im.metric-type" : "runtime",
      "im.name" : "cisco-nexus-fn64251",
      "name" : "Slot 4 N9K-X9636PQ VID:N/A (SN:SAL17257AHD)"
    },
    "value" : {
      "value" : "false"
    }
  }, {
    "tags" : {
      "im.metric-type" : "runtime",
      "im.name" : "cisco-nexus-fn64251",
      "name" : "Slot 41 N9K-C9508-FAN VID:V01 (SN:SAL171843HG)"
    },
    "value" : {
      "value" : "false"
    }
  }, {
    "tags" : {
      "im.metric-type" : "runtime",
      "im.name" : "cisco-nexus-fn64251",
      "name" : "Slot 42 N9K-C9508-FAN VID:V01 (SN:SAL171843K2)"
    },
    "value" : {
      "value" : "false"
    }
  }, {
    "tags" : {
      "im.metric-type" : "runtime",
      "im.name" : "cisco-nexus-fn64251",
      "name" : "Slot 43 N9K-C9508-FAN VID:N/A (SN:SAL171421SY)"
    },
    "value" : {
      "value" : "false"
    }
  }, {
    "tags" : {
      "im.metric-type" : "runtime",
      "im.name" : "cisco-nexus-fn64251",
      "name" : "Slot 5 N9K-X9732C-EX VID:V02 (SN:SAL17257AQQ)"
    },
    "value" : {
      "value" : "false"
    }
  } ]
}
