{
  "command" : "chkp-mgmt-cpmistat-mds",
  "metrics" : [ {
    "tags" : {
      "im.dstype" : "gauge",
      "im.metric-type" : "ts",
      "im.name" : "mgmt-ha-sync-state",
      "im.step" : "300",
      "name" : "lab-CP-MGMT-R7730-HA",
      "vs.ip" : "10.10.6.10",
      "vs.name" : "lab-CP-MGMT-R7730_Management_Server"
    },
    "value" : "0.0"
  } ]
}
