{
  "command" : "linux-free",
  "metrics" : [ {
    "tags" : {
      "display-name" : "Memory",
      "im.dstype" : "gauge",
      "im.dstype.displaytype" : "kbytes",
      "im.identity-tags" : "name",
      "im.metric-type" : "ts",
      "im.name" : "memory-free-kbytes",
      "im.step" : "300",
      "live-config" : "true",
      "name" : "swap"
    },
    "value" : "590.0"
  }, {
    "tags" : {
      "display-name" : "Memory - Free",
      "im.dstype" : "gauge",
      "im.dstype.displaytype" : "kbytes",
      "im.identity-tags" : "name",
      "im.metric-type" : "ts",
      "im.name" : "memory-free-kbytes",
      "im.step" : "300",
      "live-config" : "true",
      "name" : "RAM"
    },
    "value" : "50020.4"
  }, {
    "tags" : {
      "display-name" : "Memory",
      "im.dstype" : "gauge",
      "im.dstype.displaytype" : "kbytes",
      "im.identity-tags" : "name",
      "im.metric-type" : "ts",
      "im.name" : "memory-total-kbytes",
      "im.step" : "300",
      "live-config" : "true",
      "name" : "swap"
    },
    "value" : "600.0"
  }, {
    "tags" : {
      "display-name" : "Memory",
      "im.dstype" : "gauge",
      "im.dstype.displaytype" : "kbytes",
      "im.identity-tags" : "name",
      "im.metric-type" : "ts",
      "im.name" : "memory-usage",
      "im.step" : "300",
      "live-config" : "true",
      "name" : "swap"
    },
    "value" : "1.6666666666666667"
  }, {
    "tags" : {
      "display-name" : "Memory - Total",
      "im.dstype" : "gauge",
      "im.dstype.displaytype" : "kbytes",
      "im.identity-tags" : "name",
      "im.metric-type" : "ts",
      "im.name" : "memory-total-kbytes",
      "im.step" : "300",
      "live-config" : "true",
      "name" : "RAM"
    },
    "value" : "500204.0"
  }, {
    "tags" : {
      "display-name" : "Memory - Usage",
      "im.dstype" : "gauge",
      "im.dstype.displaytype" : "percentage",
      "im.identity-tags" : "name",
      "im.metric-type" : "ts",
      "im.name" : "memory-usage",
      "im.step" : "300",
      "live-config" : "true",
      "name" : "RAM"
    },
    "value" : "90.976321660762409"
  } ]
}
