{
  "command" : "panos-show-counter-global-name-proxy_flow_alloc_failure",
  "metrics" : [ {
    "tags" : {
      "description" : "SSL proxy allocation error (usually occurs when maximum allowed SSL decryption sessions is hit)",
      "display-name" : "Packet Drop Counters",
      "im.dstype" : "counter",
      "im.dstype.displaytype" : "number",
      "im.identity-tags" : "name",
      "im.name" : "packet-drop-counter",
      "live-config" : "true",
      "name" : "proxy_flow_alloc_failure"
    },
    "value" : "17.0"
  } ]
}
