{
  "command" : "chkp-asg-policy-verify-v-vsx",
  "metrics" : [ {
    "tags" : {
      "im.dstype" : "gauge",
      "im.metric-type" : "ts",
      "im.name" : "policy-verification-ok",
      "name" : "chassis: 1 blade: 01",
      "vs.id" : "0",
      "vs.name" : "lab-cp-61k-csx"
    },
    "value" : "0.0"
  }, {
    "tags" : {
      "im.dstype" : "gauge",
      "im.metric-type" : "ts",
      "im.name" : "policy-verification-ok",
      "name" : "chassis: 1 blade: 01",
      "vs.id" : "2",
      "vs.name" : "VS1"
    },
    "value" : "1.0"
  }, {
    "tags" : {
      "im.dstype" : "gauge",
      "im.metric-type" : "ts",
      "im.name" : "policy-verification-ok",
      "name" : "chassis: 1 blade: 01",
      "vs.id" : "3",
      "vs.name" : "VS2"
    },
    "value" : "1.0"
  }, {
    "tags" : {
      "im.dstype" : "gauge",
      "im.metric-type" : "ts",
      "im.name" : "policy-verification-ok",
      "name" : "chassis: 1 blade: 02",
      "vs.id" : "0",
      "vs.name" : "lab-cp-61k-csx"
    },
    "value" : "1.0"
  }, {
    "tags" : {
      "im.dstype" : "gauge",
      "im.metric-type" : "ts",
      "im.name" : "policy-verification-ok",
      "name" : "chassis: 1 blade: 02",
      "vs.id" : "2",
      "vs.name" : "VS1"
    },
    "value" : "1.0"
  }, {
    "tags" : {
      "im.dstype" : "gauge",
      "im.metric-type" : "ts",
      "im.name" : "policy-verification-ok",
      "name" : "chassis: 1 blade: 02",
      "vs.id" : "3",
      "vs.name" : "VS2"
    },
    "value" : "1.0"
  }, {
    "tags" : {
      "im.dstype" : "gauge",
      "im.metric-type" : "ts",
      "im.name" : "policy-verification-ok",
      "name" : "chassis: 1 blade: 03",
      "vs.id" : "0",
      "vs.name" : "lab-cp-61k-csx"
    },
    "value" : "1.0"
  }, {
    "tags" : {
      "im.dstype" : "gauge",
      "im.metric-type" : "ts",
      "im.name" : "policy-verification-ok",
      "name" : "chassis: 1 blade: 03",
      "vs.id" : "2",
      "vs.name" : "VS1"
    },
    "value" : "1.0"
  }, {
    "tags" : {
      "im.dstype" : "gauge",
      "im.metric-type" : "ts",
      "im.name" : "policy-verification-ok",
      "name" : "chassis: 1 blade: 03",
      "vs.id" : "3",
      "vs.name" : "VS2"
    },
    "value" : "1.0"
  }, {
    "tags" : {
      "im.dstype" : "gauge",
      "im.metric-type" : "ts",
      "im.name" : "policy-verification-ok",
      "name" : "chassis: 2 blade: 01",
      "vs.id" : "0",
      "vs.name" : "lab-cp-61k-csx"
    },
    "value" : "1.0"
  }, {
    "tags" : {
      "im.dstype" : "gauge",
      "im.metric-type" : "ts",
      "im.name" : "policy-verification-ok",
      "name" : "chassis: 2 blade: 01",
      "vs.id" : "2",
      "vs.name" : "VS1"
    },
    "value" : "1.0"
  }, {
    "tags" : {
      "im.dstype" : "gauge",
      "im.metric-type" : "ts",
      "im.name" : "policy-verification-ok",
      "name" : "chassis: 2 blade: 01",
      "vs.id" : "3",
      "vs.name" : "VS2"
    },
    "value" : "1.0"
  }, {
    "tags" : {
      "im.dstype" : "gauge",
      "im.metric-type" : "ts",
      "im.name" : "policy-verification-ok",
      "name" : "chassis: 2 blade: 02",
      "vs.id" : "0",
      "vs.name" : "lab-cp-61k-csx"
    },
    "value" : "1.0"
  }, {
    "tags" : {
      "im.dstype" : "gauge",
      "im.metric-type" : "ts",
      "im.name" : "policy-verification-ok",
      "name" : "chassis: 2 blade: 02",
      "vs.id" : "2",
      "vs.name" : "VS1"
    },
    "value" : "1.0"
  }, {
    "tags" : {
      "im.dstype" : "gauge",
      "im.metric-type" : "ts",
      "im.name" : "policy-verification-ok",
      "name" : "chassis: 2 blade: 02",
      "vs.id" : "3",
      "vs.name" : "VS2"
    },
    "value" : "1.0"
  }, {
    "tags" : {
      "im.dstype" : "gauge",
      "im.metric-type" : "ts",
      "im.name" : "policy-verification-ok",
      "name" : "chassis: 2 blade: 03",
      "vs.id" : "0",
      "vs.name" : "lab-cp-61k-csx"
    },
    "value" : "1.0"
  }, {
    "tags" : {
      "im.dstype" : "gauge",
      "im.metric-type" : "ts",
      "im.name" : "policy-verification-ok",
      "name" : "chassis: 2 blade: 03",
      "vs.id" : "2",
      "vs.name" : "VS1"
    },
    "value" : "1.0"
  }, {
    "tags" : {
      "im.dstype" : "gauge",
      "im.metric-type" : "ts",
      "im.name" : "policy-verification-ok",
      "name" : "chassis: 2 blade: 03",
      "vs.id" : "3",
      "vs.name" : "VS2"
    },
    "value" : "1.0"
  } ]
}
