{
  "command" : "chkp-asg-provision",
  "metrics" : [ {
    "tags" : {
      "im.dstype" : "gauge",
      "im.metric-type" : "ts",
      "im.name" : "provisioning-status"
    },
    "value" : "0.0"
  } ]
}
