{
  "command" : "chkp-asg-ntp",
  "metrics" : [ {
    "tags" : {
      "display-name" : "NTP Servers",
      "im.metric-type" : "runtime",
      "im.name" : "ntp-servers",
      "live-config" : "true"
    },
    "value" : [ {
      "ipAddress" : "1.1.1.1",
      "version" : "4",
      "type" : "Secondary"
    }, {
      "type" : "Primary",
      "ipAddress" : "192.168.197.1",
      "version" : "4"
    } ]
  } ]
}
