{
  "command" : "cpembedded-load-average",
  "metrics" : [ {
    "tags" : {
      "display-name" : "Load Average (15 Minutes)",
      "im.dstype" : "gauge",
      "im.dstype.displaytype" : "number",
      "im.metric-type" : "ts",
      "im.name" : "load-average-fifteen-minutes",
      "im.step" : "600",
      "live-config" : "true"
    },
    "value" : "0.0"
  }, {
    "tags" : {
      "display-name" : "Load Average (5 Minutes)",
      "im.dstype" : "gauge",
      "im.dstype.displaytype" : "number",
      "im.metric-type" : "ts",
      "im.name" : "load-average-five-minutes",
      "im.step" : "600",
      "live-config" : "true"
    },
    "value" : "0.01"
  }, {
    "tags" : {
      "display-name" : "Load Average (1 Minute)",
      "im.dstype" : "gauge",
      "im.dstype.displaytype" : "number",
      "im.metric-type" : "ts",
      "im.name" : "load-average-one-minute",
      "im.step" : "600",
      "live-config" : "true"
    },
    "value" : "0.0"
  } ]
}
