{
  "command" : "chkp-os-routes_missing",
  "metrics" : [ {
    "tags" : {
      "im.metric-type" : "runtime",
      "im.name" : "routes-missing-kernel"
    },
    "value" : [ {
      "missing-route" : "10.10.100.0/24"
    } ]
  } ]
}
