{
  "command" : "ios-show-cdp-neighbors-detail",
  "metrics" : [ {
    "tags" : {
      "display-name" : "CDP",
      "im.identity-tags" : "name",
      "im.metric-type" : "runtime",
      "im.name" : "known-devices"
    },
    "value" : [ {
      "capabilities" : "IGMP CVTA phone port",
      "name" : "ucs-c01-B(SSI12345678)",
      "interface" : "GigabitEthernet1/0/26",
      "version" : "5.0(3)N2(2.11a)",
      "ip_address" : "10.1.104.12",
      "holdtime" : "178",
      "platform" : "UCS-FI-6248UP Capabilities:",
      "duplex" : "full",
      "mgmt_address" : "10.1.104.12"
    }, {
      "capabilities" : "Router Source-Route-Bridge Switch IGMP",
      "name" : "ISR-PnP-DHCP-server.cisco.com",
      "interface" : "GigabitEthernet1/0/19",
      "version" : "15.3(3)M3",
      "ip_address" : "10.1.110.11",
      "holdtime" : "163",
      "platform" : "Cisco 891",
      "duplex" : "full",
      "mgmt_address" : "10.1.110.11"
    }, {
      "capabilities" : "Router Source-Route-Bridge Switch IGMP",
      "name" : "test.tail-f.com",
      "interface" : "GigabitEthernet1/0/20",
      "version" : "15.5(0.25)T",
      "ip_address" : "10.1.110.101",
      "holdtime" : "138",
      "platform" : "Cisco 891",
      "duplex" : "full",
      "mgmt_address" : "10.1.110.101"
    }, {
      "capabilities" : "Switch IGMP CVTA phone port",
      "name" : "Cloud-TME-lab-N6K-pod2-2(FOC12345678)",
      "interface" : "GigabitEthernet1/0/18",
      "version" : "7.0(0)N1(1)",
      "ip_address" : "173.36.213.107",
      "holdtime" : "136",
      "platform" : "N6K-C6001-64P Capabilities:",
      "duplex" : "full",
      "mgmt_address" : "173.36.213.107"
    }, {
      "capabilities" : "Router",
      "name" : "lax-gw.cisco.com",
      "interface" : "GigabitEthernet1/0/28",
      "version" : "15.4(1)S1",
      "ip_address" : "10.1.101.1",
      "holdtime" : "146",
      "platform" : "cisco ISR4451-X/K9",
      "duplex" : "full",
      "mgmt_address" : "10.1.101.1"
    }, {
      "capabilities" : "Switch IGMP",
      "name" : "lax-sw-r4-tor.cisco.com",
      "interface" : "GigabitEthernet1/0/27",
      "version" : "12.2(50)SE3",
      "ip_address" : "10.1.101.16",
      "holdtime" : "152",
      "platform" : "cisco WS-C3750G-24T",
      "duplex" : "full",
      "mgmt_address" : "10.1.101.16"
    }, {
      "capabilities" : "Router Source-Route-Bridge Switch IGMP",
      "name" : "Router.lax-t1.org",
      "interface" : "GigabitEthernet1/0/21",
      "version" : "15.5(0.25)T",
      "ip_address" : "10.1.110.102",
      "holdtime" : "134",
      "platform" : "Cisco 891",
      "duplex" : "full",
      "mgmt_address" : "10.1.110.102"
    }, {
      "capabilities" : "IGMP CVTA phone port",
      "name" : "ucs-c01-A(SSI12345432)",
      "interface" : "GigabitEthernet1/0/25",
      "version" : "5.0(3)N2(2.11a)",
      "ip_address" : "10.1.104.11",
      "holdtime" : "140",
      "platform" : "UCS-FI-6248UP Capabilities:",
      "duplex" : "full",
      "mgmt_address" : "10.1.104.11"
    } ]
  } ]
}
