{
  "command" : "ios-show-cdp-neighbors-detail",
  "metrics" : [ {
    "tags" : {
      "display-name" : "CDP",
      "im.identity-tags" : "name",
      "im.metric-type" : "runtime",
      "im.name" : "known-devices"
    },
    "value" : [ {
      "capabilities" : "Router",
      "name" : "R3.cisco.com",
      "interface" : "FastEthernet2/0",
      "version" : "15.2(4)S5",
      "ip_address" : "10.10.23.2",
      "holdtime" : "106",
      "platform" : "Cisco 7206VXR",
      "duplex" : "full",
      "mgmt_address" : "10.10.23.2"
    }, {
      "capabilities" : "Router",
      "name" : "R3.cisco.com",
      "interface" : "FastEthernet3/0",
      "version" : "15.2(4)S5",
      "ip_address" : "10.10.23.2",
      "holdtime" : "129",
      "platform" : "Cisco 7206VXR",
      "duplex" : "full",
      "mgmt_address" : "10.10.23.2"
    }, {
      "capabilities" : "Router",
      "name" : "R3.cisco.com",
      "interface" : "FastEthernet1/0",
      "version" : "15.2(4)S5",
      "ip_address" : "10.10.23.2",
      "holdtime" : "153",
      "platform" : "Cisco 7206VXR",
      "duplex" : "full",
      "mgmt_address" : "10.10.23.2"
    }, {
      "capabilities" : "Router",
      "name" : "R1.cisco.com",
      "interface" : "FastEthernet1/0",
      "version" : "15.2(4)S5",
      "ip_address" : "10.10.21.2",
      "holdtime" : "168",
      "platform" : "Cisco 7206VXR",
      "duplex" : "full",
      "mgmt_address" : "10.10.21.2"
    }, {
      "capabilities" : "Router",
      "name" : "R1.cisco.com",
      "interface" : "FastEthernet2/0",
      "version" : "15.2(4)S5",
      "ip_address" : "10.10.21.2",
      "holdtime" : "163",
      "platform" : "Cisco 7206VXR",
      "duplex" : "full",
      "mgmt_address" : "10.10.21.2"
    }, {
      "capabilities" : "Router",
      "name" : "R1.cisco.com",
      "interface" : "FastEthernet3/0",
      "version" : "15.2(4)S5",
      "ip_address" : "10.10.21.2",
      "holdtime" : "151",
      "platform" : "Cisco 7206VXR",
      "duplex" : "full",
      "mgmt_address" : "10.10.21.2"
    } ]
  } ]
}
