{
  "command" : "ios-dir-all-filesystems",
  "metrics" : [ {
    "tags" : {
      "display-name" : "File System - Total",
      "file-system" : "nvram:/",
      "im.dstype" : "gauge",
      "im.dstype.displaytype" : "kilobytes",
      "im.identity-tags" : "file-system",
      "im.metric-type" : "ts",
      "im.name" : "disk-total-kbytes",
      "live-config" : "true"
    },
    "value" : "509.9921875"
  }, {
    "tags" : {
      "display-name" : "File System - Usage",
      "file-system" : "nvram:/",
      "im.dstype" : "gauge",
      "im.dstype.displaytype" : "percentage",
      "im.identity-tags" : "file-system",
      "im.metric-type" : "ts",
      "im.name" : "disk-usage-percentage",
      "live-config" : "true"
    },
    "value" : "0.8517287335896668"
  }, {
    "tags" : {
      "display-name" : "File System - Used",
      "file-system" : "nvram:/",
      "im.dstype" : "gauge",
      "im.dstype.displaytype" : "kilobytes",
      "im.identity-tags" : "file-system",
      "im.metric-type" : "ts",
      "im.name" : "disk-used-kbytes",
      "live-config" : "true"
    },
    "value" : "4.34375"
  } ]
}
