{
  "command" : "ios-show-interface-transceiver-detail",
  "metrics" : [ {
    "tags" : {
      "im.dstype" : "gauge",
      "im.dstype.displaytype" : "state",
      "im.metric-type" : "ts",
      "im.name" : "hardware-element-status",
      "name" : "Optical Receive Power (dBm)  Gi1/0/25"
    },
    "value" : "0.0"
  }, {
    "tags" : {
      "im.dstype" : "gauge",
      "im.dstype.displaytype" : "state",
      "im.metric-type" : "ts",
      "im.name" : "hardware-element-status",
      "name" : "Optical Receive Power (dBm)  Gi1/0/26"
    },
    "value" : "0.0"
  }, {
    "tags" : {
      "im.dstype" : "gauge",
      "im.dstype.displaytype" : "state",
      "im.metric-type" : "ts",
      "im.name" : "hardware-element-status",
      "name" : "Optical Transmit Power (dBm)  Gi1/0/25"
    },
    "value" : "1.0"
  }, {
    "tags" : {
      "im.dstype" : "gauge",
      "im.dstype.displaytype" : "state",
      "im.metric-type" : "ts",
      "im.name" : "hardware-element-status",
      "name" : "Optical Transmit Power (dBm)  Gi1/0/26"
    },
    "value" : "0.0"
  }, {
    "tags" : {
      "im.dstype" : "gauge",
      "im.dstype.displaytype" : "state",
      "im.metric-type" : "ts",
      "im.name" : "hardware-element-status",
      "name" : "Temperature (Celsius)  Gi1/0/25"
    },
    "value" : "0.0"
  }, {
    "tags" : {
      "im.dstype" : "gauge",
      "im.dstype.displaytype" : "state",
      "im.metric-type" : "ts",
      "im.name" : "hardware-element-status",
      "name" : "Temperature (Celsius)  Gi1/0/26"
    },
    "value" : "1.0"
  }, {
    "tags" : {
      "im.dstype" : "gauge",
      "im.dstype.displaytype" : "state",
      "im.metric-type" : "ts",
      "im.name" : "hardware-element-status",
      "name" : "Voltage (Volts)  Gi1/0/25"
    },
    "value" : "0.0"
  }, {
    "tags" : {
      "im.dstype" : "gauge",
      "im.dstype.displaytype" : "state",
      "im.metric-type" : "ts",
      "im.name" : "hardware-element-status",
      "name" : "Voltage (Volts)  Gi1/0/26"
    },
    "value" : "0.0"
  } ]
}
