{
  "command" : "ios-show-ip-route-connected",
  "metrics" : [ {
    "tags" : {
      "display-name" : "Connected Routing Table",
      "im.metric-type" : "runtime",
      "im.name" : "static-routing-table",
      "live-config" : "true"
    },
    "value" : [ {
      "mask" : "24",
      "network" : "192.145.32.0"
    }, {
      "network" : "192.145.32.1",
      "mask" : "32"
    }, {
      "network" : "192.145.33.0",
      "mask" : "24"
    }, {
      "network" : "192.145.33.1",
      "mask" : "32"
    }, {
      "network" : "192.168.31.0",
      "mask" : "24"
    }, {
      "network" : "192.168.31.1",
      "mask" : "32"
    }, {
      "mask" : "24",
      "network" : "192.168.32.0"
    }, {
      "mask" : "32",
      "network" : "192.168.32.1"
    }, {
      "mask" : "24",
      "network" : "192.168.33.0"
    }, {
      "network" : "10.10.21.0",
      "mask" : "24"
    }, {
      "mask" : "32",
      "network" : "10.10.21.2"
    }, {
      "network" : "172.16.31.0",
      "mask" : "24"
    }, {
      "mask" : "32",
      "network" : "172.16.31.1"
    }, {
      "mask" : "24",
      "network" : "172.16.32.0"
    }, {
      "mask" : "32",
      "network" : "172.16.32.1"
    }, {
      "mask" : "24",
      "network" : "172.16.33.0"
    }, {
      "mask" : "32",
      "network" : "172.16.33.1"
    }, {
      "mask" : "24",
      "network" : "192.145.31.0"
    }, {
      "mask" : "32",
      "network" : "192.168.33.1"
    }, {
      "network" : "192.145.31.1",
      "mask" : "32"
    } ]
  } ]
}
