{
  "command" : "unix-hostname-monitoring",
  "metrics" : [ {
    "tags" : {
      "im.metric-type" : "runtime",
      "im.name" : "hostname"
    },
    "value" : {
      "value" : "lab-CP-GW1"
    }
  } ]
}
