{
  "command" : "junos-show-chassis-forwarding",
  "metrics" : [ {
    "tags" : {
      "display-name" : "Memory Usage",
      "im.identity-tags" : "name",
      "im.name" : "memory-usage",
      "live-config" : "true",
      "name" : "FWDD Buffers"
    },
    "value" : "1.0"
  }, {
    "tags" : {
      "display-name" : "Memory Usage",
      "im.identity-tags" : "name",
      "im.name" : "memory-usage",
      "live-config" : "true",
      "name" : "FWDD Heap"
    },
    "value" : "58.0"
  }, {
    "tags" : {
      "cpu-id" : "FWDD",
      "cpu-is-avg" : "false",
      "display-name" : "CPU Usage",
      "im.identity-tags" : "cpu-id",
      "im.name" : "cpu-usage",
      "live-config" : "true"
    },
    "value" : "10.0"
  } ]
}
