{
  "command" : "cpmds-cplic-print-x-n-p",
  "metrics" : [ {
    "tags" : {
      "im.metric-type" : "runtime",
      "im.name" : "licenses",
      "vs.ip" : "10.10.6.10",
      "vs.name" : "lab-CP-MGMT-R7730_Management_Server"
    },
    "value" : [ {
      "ip" : "10.10.6.10",
      "features" : "::CK-043C32F48B44 fw1:6.0:swb fw1:6.0:comp fw1:6.0:compunlimited fw1:6.0:swb fw1:6.0:nx25 fw1:6.0:nx25 fw1:6.0:swb evnt:6.0:smrt_evnt fw1:6.0:fwc fw1:6.0:ca fw1:6.0:rtmui fw1:6.0:sstui fw1:6.0:fwlv fw1:6.0:cmd evnt:6.0:alzd5 evnt:6.0:alzc1 evnt:6.0:alzs1 fw1:6.0:fwc fw1:6.0:ca fw1:6.0:rtmui fw1:6.0:sstui fw1:6.0:fwlv fw1:6.0:cmd evnt:6.0:alzd5 evnt:6.0:alzc1 evnt:6.0:alzs1 fw1:6.0:swb fw1:6.0:swp fw1:6.0:swb fw1:6.0:fwc fw1:6.0:ca fw1:6.0:rtmui fw1:6.0:sstui fw1:6.0:fwlv fw1:6.0:cmd etm:6.0:rtm_u fw1:6.0:cep1 fw1:6.0:rt fw1:6.0:cemid fw1:6.0:rt etm:6.0:rtm_u fw1:6.0:cep1 fw1:6.0:rt fw1:6.0:cemid fw1:6.0:rt fw1:6.0:swb fw1:6.0:web_sec_u fw1:6.0:swb fw1:6.0:swb fw1:6.0:workflow fw1:6.0:swb etm:6.0:rtm_u fw1:6.0:swb fw1:6.0:ram1 fw1:6.0:swb fw1:6.0:routers fw1:6.0:supmgmt fw1:6.0:supunlimit fw1:6.0:prov fw1:6.0:atlas-unlimit fw1:6.0:swb fw1:6.0:fwc fw1:6.0:ca fw1:6.0:rtmui fw1:6.0:sstui fw1:6.0:fwlv fw1:6.0:cmd fw1:6.0:swb fw1:6.0:filter fw1:6.0:fwc fw1:6.0:rtmui fw1:6.0:sstui fw1:6.0:fwlv fw1:6.0:ui fw1:6.0:cmd psmp:6.0:psmsunlimited fw1:6.0:swb fw1:6.0:vpe_unlimit fw1:6.0:cluster-u fw1:6.0:remote1 fw1:6.0:aes fw1:6.0:strong fw1:6.0:rdp fw1:6.0:des fw1:6.0:isakmp fw1:6.0:ca fw1:6.0:cluster-u fw1:6.0:dbvr_unlimit fw1:6.0:cmpmgmt fw1:6.0:rtmmgmt fw1:6.0:fgmgmt fw1:6.0:rtmui fw1:6.0:sstui fw1:6.0:fwlv fw1:6.0:ui fw1:6.0:filter fw1:6.0:fwc fw1:6.0:cmd fw1:6.0:swb fw1:6.0:cluster-1 fw1:6.0:swb fw1:6.0:cpxmgmt_qos_u_sites fw1:6.0:sprounl fw1:6.0:blades fw1:6.0:cpipv6 fw1:6.0:mgmtha fw1:6.0:swb fw1:6.0:remote",
      "signature" : "aAenGX7K7PHCkhUUAfHq3CksFJ6MYViWcTYf",
      "ck" : "::CK-043C32F48B44",
      "expiration" : "30Sep2017"
    }, {
      "ip" : "10.10.6.10",
      "features" : "::CK-15B6649FC561 fw1:6.0:swb fw1:6.0:comp fw1:6.0:compunlimited fw1:6.0:swb fw1:6.0:nx25 fw1:6.0:nx25 fw1:6.0:swb evnt:6.0:smrt_evnt fw1:6.0:fwc fw1:6.0:ca fw1:6.0:rtmui fw1:6.0:sstui fw1:6.0:fwlv fw1:6.0:cmd evnt:6.0:alzd5 evnt:6.0:alzc1 evnt:6.0:alzs1 fw1:6.0:fwc fw1:6.0:ca fw1:6.0:rtmui fw1:6.0:sstui fw1:6.0:fwlv fw1:6.0:cmd evnt:6.0:alzd5 evnt:6.0:alzc1 evnt:6.0:alzs1 fw1:6.0:swb fw1:6.0:swp fw1:6.0:swb fw1:6.0:fwc fw1:6.0:ca fw1:6.0:rtmui fw1:6.0:sstui fw1:6.0:fwlv fw1:6.0:cmd etm:6.0:rtm_u fw1:6.0:cep1 fw1:6.0:rt fw1:6.0:cemid fw1:6.0:rt etm:6.0:rtm_u fw1:6.0:cep1 fw1:6.0:rt fw1:6.0:cemid fw1:6.0:rt fw1:6.0:swb fw1:6.0:web_sec_u fw1:6.0:swb fw1:6.0:swb fw1:6.0:workflow fw1:6.0:swb etm:6.0:rtm_u fw1:6.0:swb fw1:6.0:ram1 fw1:6.0:swb fw1:6.0:routers fw1:6.0:supmgmt fw1:6.0:supunlimit fw1:6.0:prov fw1:6.0:atlas-unlimit fw1:6.0:swb fw1:6.0:fwc fw1:6.0:ca fw1:6.0:rtmui fw1:6.0:sstui fw1:6.0:fwlv fw1:6.0:cmd fw1:6.0:swb fw1:6.0:filter fw1:6.0:fwc fw1:6.0:rtmui fw1:6.0:sstui fw1:6.0:fwlv fw1:6.0:ui fw1:6.0:cmd psmp:6.0:psmsunlimited fw1:6.0:swb fw1:6.0:vpe_unlimit fw1:6.0:cluster-u fw1:6.0:remote1 fw1:6.0:aes fw1:6.0:strong fw1:6.0:rdp fw1:6.0:des fw1:6.0:isakmp fw1:6.0:ca fw1:6.0:cluster-u fw1:6.0:dbvr_unlimit fw1:6.0:cmpmgmt fw1:6.0:rtmmgmt fw1:6.0:fgmgmt fw1:6.0:rtmui fw1:6.0:sstui fw1:6.0:fwlv fw1:6.0:ui fw1:6.0:filter fw1:6.0:fwc fw1:6.0:cmd fw1:6.0:swb fw1:6.0:cluster-1 fw1:6.0:swb fw1:6.0:cpxmgmt_qos_u_sites fw1:6.0:sprounl fw1:6.0:blades fw1:6.0:cpipv6 fw1:6.0:mgmtha fw1:6.0:swb fw1:6.0:remote",
      "signature" : "aDNkD597XitMjEhGhNKHAdmzuCR6iwxu4G8w",
      "ck" : "::CK-15B6649FC561",
      "expiration" : "30Sep2017"
    }, {
      "ip" : "10.10.6.10",
      "features" : "::CK-42775A38CEC8 fw1:6.0:swb fw1:6.0:comp fw1:6.0:compunlimited fw1:6.0:swb fw1:6.0:nx25 fw1:6.0:nx25 fw1:6.0:swb evnt:6.0:smrt_evnt fw1:6.0:fwc fw1:6.0:ca fw1:6.0:rtmui fw1:6.0:sstui fw1:6.0:fwlv fw1:6.0:cmd evnt:6.0:alzd5 evnt:6.0:alzc1 evnt:6.0:alzs1 fw1:6.0:fwc fw1:6.0:ca fw1:6.0:rtmui fw1:6.0:sstui fw1:6.0:fwlv fw1:6.0:cmd evnt:6.0:alzd5 evnt:6.0:alzc1 evnt:6.0:alzs1 fw1:6.0:swb fw1:6.0:swp fw1:6.0:swb fw1:6.0:fwc fw1:6.0:ca fw1:6.0:rtmui fw1:6.0:sstui fw1:6.0:fwlv fw1:6.0:cmd etm:6.0:rtm_u fw1:6.0:cep1 fw1:6.0:rt fw1:6.0:cemid fw1:6.0:rt etm:6.0:rtm_u fw1:6.0:cep1 fw1:6.0:rt fw1:6.0:cemid fw1:6.0:rt fw1:6.0:swb fw1:6.0:web_sec_u fw1:6.0:swb fw1:6.0:swb fw1:6.0:workflow fw1:6.0:swb etm:6.0:rtm_u fw1:6.0:swb fw1:6.0:ram1 fw1:6.0:swb fw1:6.0:routers fw1:6.0:supmgmt fw1:6.0:supunlimit fw1:6.0:prov fw1:6.0:atlas-unlimit fw1:6.0:swb fw1:6.0:fwc fw1:6.0:ca fw1:6.0:rtmui fw1:6.0:sstui fw1:6.0:fwlv fw1:6.0:cmd fw1:6.0:swb fw1:6.0:filter fw1:6.0:fwc fw1:6.0:rtmui fw1:6.0:sstui fw1:6.0:fwlv fw1:6.0:ui fw1:6.0:cmd psmp:6.0:psmsunlimited fw1:6.0:swb fw1:6.0:vpe_unlimit fw1:6.0:cluster-u fw1:6.0:remote1 fw1:6.0:aes fw1:6.0:strong fw1:6.0:rdp fw1:6.0:des fw1:6.0:isakmp fw1:6.0:ca fw1:6.0:cluster-u fw1:6.0:dbvr_unlimit fw1:6.0:cmpmgmt fw1:6.0:rtmmgmt fw1:6.0:fgmgmt fw1:6.0:rtmui fw1:6.0:sstui fw1:6.0:fwlv fw1:6.0:ui fw1:6.0:filter fw1:6.0:fwc fw1:6.0:cmd fw1:6.0:swb fw1:6.0:cluster-1 fw1:6.0:swb fw1:6.0:cpxmgmt_qos_u_sites fw1:6.0:sprounl fw1:6.0:blades fw1:6.0:cpipv6 fw1:6.0:mgmtha fw1:6.0:swb fw1:6.0:remote",
      "signature" : "at7zFfvwHXe4N2Wp7rhkvNYDxFaZ6HhryADa",
      "ck" : "::CK-42775A38CEC8",
      "expiration" : "30Sep2017"
    }, {
      "ip" : "10.10.6.10",
      "features" : "::CK-88B16492B803 fw1:6.0:swb fw1:6.0:comp fw1:6.0:compunlimited fw1:6.0:swb fw1:6.0:nx25 fw1:6.0:nx25 fw1:6.0:swb evnt:6.0:smrt_evnt fw1:6.0:fwc fw1:6.0:ca fw1:6.0:rtmui fw1:6.0:sstui fw1:6.0:fwlv fw1:6.0:cmd evnt:6.0:alzd5 evnt:6.0:alzc1 evnt:6.0:alzs1 fw1:6.0:fwc fw1:6.0:ca fw1:6.0:rtmui fw1:6.0:sstui fw1:6.0:fwlv fw1:6.0:cmd evnt:6.0:alzd5 evnt:6.0:alzc1 evnt:6.0:alzs1 fw1:6.0:swb fw1:6.0:swp fw1:6.0:swb fw1:6.0:fwc fw1:6.0:ca fw1:6.0:rtmui fw1:6.0:sstui fw1:6.0:fwlv fw1:6.0:cmd etm:6.0:rtm_u fw1:6.0:cep1 fw1:6.0:rt fw1:6.0:cemid fw1:6.0:rt etm:6.0:rtm_u fw1:6.0:cep1 fw1:6.0:rt fw1:6.0:cemid fw1:6.0:rt fw1:6.0:swb fw1:6.0:web_sec_u fw1:6.0:swb fw1:6.0:swb fw1:6.0:workflow fw1:6.0:swb etm:6.0:rtm_u fw1:6.0:swb fw1:6.0:ram1 fw1:6.0:swb fw1:6.0:routers fw1:6.0:supmgmt fw1:6.0:supunlimit fw1:6.0:prov fw1:6.0:atlas-unlimit fw1:6.0:swb fw1:6.0:fwc fw1:6.0:ca fw1:6.0:rtmui fw1:6.0:sstui fw1:6.0:fwlv fw1:6.0:cmd fw1:6.0:swb fw1:6.0:filter fw1:6.0:fwc fw1:6.0:rtmui fw1:6.0:sstui fw1:6.0:fwlv fw1:6.0:ui fw1:6.0:cmd psmp:6.0:psmsunlimited fw1:6.0:swb fw1:6.0:vpe_unlimit fw1:6.0:cluster-u fw1:6.0:remote1 fw1:6.0:aes fw1:6.0:strong fw1:6.0:rdp fw1:6.0:des fw1:6.0:isakmp fw1:6.0:ca fw1:6.0:cluster-u fw1:6.0:dbvr_unlimit fw1:6.0:cmpmgmt fw1:6.0:rtmmgmt fw1:6.0:fgmgmt fw1:6.0:rtmui fw1:6.0:sstui fw1:6.0:fwlv fw1:6.0:ui fw1:6.0:filter fw1:6.0:fwc fw1:6.0:cmd fw1:6.0:swb fw1:6.0:cluster-1 fw1:6.0:swb fw1:6.0:cpxmgmt_qos_u_sites fw1:6.0:sprounl fw1:6.0:blades fw1:6.0:cpipv6 fw1:6.0:mgmtha fw1:6.0:swb fw1:6.0:remote",
      "signature" : "avfJGam2FkL2f4nf6S3tQMvWpVycYRiYo8ev",
      "ck" : "::CK-88B16492B803",
      "expiration" : "30Sep2017"
    }, {
      "ip" : "10.10.6.10",
      "features" : "::CK-569EE90DC714 fw1:6.0:swb fw1:6.0:comp fw1:6.0:compunlimited fw1:6.0:swb fw1:6.0:nx25 fw1:6.0:nx25 fw1:6.0:swb evnt:6.0:smrt_evnt fw1:6.0:fwc fw1:6.0:ca fw1:6.0:rtmui fw1:6.0:sstui fw1:6.0:fwlv fw1:6.0:cmd evnt:6.0:alzd5 evnt:6.0:alzc1 evnt:6.0:alzs1 fw1:6.0:fwc fw1:6.0:ca fw1:6.0:rtmui fw1:6.0:sstui fw1:6.0:fwlv fw1:6.0:cmd evnt:6.0:alzd5 evnt:6.0:alzc1 evnt:6.0:alzs1 fw1:6.0:swb fw1:6.0:swp fw1:6.0:swb fw1:6.0:fwc fw1:6.0:ca fw1:6.0:rtmui fw1:6.0:sstui fw1:6.0:fwlv fw1:6.0:cmd etm:6.0:rtm_u fw1:6.0:cep1 fw1:6.0:rt fw1:6.0:cemid fw1:6.0:rt etm:6.0:rtm_u fw1:6.0:cep1 fw1:6.0:rt fw1:6.0:cemid fw1:6.0:rt fw1:6.0:swb fw1:6.0:web_sec_u fw1:6.0:swb fw1:6.0:swb fw1:6.0:workflow fw1:6.0:swb etm:6.0:rtm_u fw1:6.0:swb fw1:6.0:ram1 fw1:6.0:swb fw1:6.0:routers fw1:6.0:supmgmt fw1:6.0:supunlimit fw1:6.0:prov fw1:6.0:atlas-unlimit fw1:6.0:swb fw1:6.0:fwc fw1:6.0:ca fw1:6.0:rtmui fw1:6.0:sstui fw1:6.0:fwlv fw1:6.0:cmd fw1:6.0:swb fw1:6.0:filter fw1:6.0:fwc fw1:6.0:rtmui fw1:6.0:sstui fw1:6.0:fwlv fw1:6.0:ui fw1:6.0:cmd psmp:6.0:psmsunlimited fw1:6.0:swb fw1:6.0:vpe_unlimit fw1:6.0:cluster-u fw1:6.0:remote1 fw1:6.0:aes fw1:6.0:strong fw1:6.0:rdp fw1:6.0:des fw1:6.0:isakmp fw1:6.0:ca fw1:6.0:cluster-u fw1:6.0:dbvr_unlimit fw1:6.0:cmpmgmt fw1:6.0:rtmmgmt fw1:6.0:fgmgmt fw1:6.0:rtmui fw1:6.0:sstui fw1:6.0:fwlv fw1:6.0:ui fw1:6.0:filter fw1:6.0:fwc fw1:6.0:cmd fw1:6.0:swb fw1:6.0:cluster-1 fw1:6.0:swb fw1:6.0:cpxmgmt_qos_u_sites fw1:6.0:sprounl fw1:6.0:blades fw1:6.0:cpipv6 fw1:6.0:mgmtha fw1:6.0:swb fw1:6.0:remote",
      "signature" : "aTU7pgSUiMrajtPPthH3PUX3tTcqyRDCiYmg",
      "ck" : "::CK-569EE90DC714",
      "expiration" : "30Sep2017"
    } ]
  } ]
}
