{
  "command" : "chkp-secureplatform-users",
  "metrics" : [ {
    "tags" : {
      "im.metric-type" : "runtime",
      "im.name" : "users"
    },
    "value" : [ {
      "username" : "root"
    }, {
      "username" : "shutdown"
    }, {
      "username" : "halt"
    }, {
      "username" : "nobody"
    }, {
      "username" : "vcsa"
    }, {
      "username" : "ntp"
    }, {
      "username" : "rpm"
    }, {
      "username" : "pcap"
    }, {
      "username" : "admin"
    }, {
      "username" : "indeni"
    } ]
  } ]
}
