{
  "command" : "chkp-os-proc-meminfo",
  "metrics" : [ {
    "tags" : {
      "im.dstype" : "gauge",
      "im.metric-type" : "ts",
      "im.name" : "vmalloc-total-kbytes",
      "im.step" : "300"
    },
    "value" : "116728.0"
  }, {
    "tags" : {
      "im.dstype" : "gauge",
      "im.metric-type" : "ts",
      "im.name" : "vmalloc-used-kbytes",
      "im.step" : "300"
    },
    "value" : "114812.0"
  } ]
}
